Intro to Data Science for the Social Sector
…
nlevels( Salaries$teamID )
#> [1] 46
length( unique( Salaries$yearID ) )
#> [1] 32

So we can potentially calculate 32 x 46 = 1,472 average player salaries.

5.2.1 Highest Ave Player Salary

For our first question, we will select only teams from the National League. Let’s use the most recent year of data to calculate average pay.

Salaries %>% filter( lgID == "NL", yearID == 2016 ) %>% 
             group_by( teamID) %>% 
             summarize( Ave_Salary = mean(salary) )
#> # A tibble: 15 x 2
#>   teamID Ave_Salary
#>   <fct>       <dbl>
#> 1 ARI      3363041.
#> 2 ATL      2362010.
#> 3 CHC      5312678.
#> 4 CIN      3066899.
#> 5 COL      3413487 
#> 6 LAD      6322525.
#> # ... with 9 more rows
…
